1,00000000000000000000000000000001,00000000000000000000000000000001
2,00000000000000000000000000000001,00000000000000000000000000000010
3,00000000000000000000000000000001,00000000000000000000000000000100
4,00000000000000000000000000000101,00000000000000000000000000000010
