Starting shell in Topographical mode...
#Function: synthesize Inexacr Speculative Adder 
#10/11/2016 Xun Jiao 
set_host_options -max_cores 2
1
set dname ADDER32CLK
ADDER32CLK
############################### PREPARE LIBRARY #############################################
set SYNOPSYS "/home/tools/DC_2/syn/J-2014.09-SP5-3/amd64/syn/bin"
/home/tools/DC_2/syn/J-2014.09-SP5-3/amd64/syn/bin
set search_path  ". $SYNOPSYS /home/tools/DC_2/syn/J-2014.09-SP5-3/dw /home/tools/DC_2/syn/J-2014.09-SP5-3/libraries/syn"
. /home/tools/DC_2/syn/J-2014.09-SP5-3/amd64/syn/bin /home/tools/DC_2/syn/J-2014.09-SP5-3/dw /home/tools/DC_2/syn/J-2014.09-SP5-3/libraries/syn
set synthetic_library "/home/tools/DC_2/syn/J-2014.09-SP5-3/libraries/syn/dw_foundation.sldb /home/tools/DC_2/syn/J-2014.09-SP5-3/libraries/syn/standard.sldb"
/home/tools/DC_2/syn/J-2014.09-SP5-3/libraries/syn/dw_foundation.sldb /home/tools/DC_2/syn/J-2014.09-SP5-3/libraries/syn/standard.sldb
set target_library_nvt "/home/TSMC/45GS_GP_FRONT_NVT/digital/Front_End/timing_power_noise/NLDM/tcbn45gsbwp_120a/tcbn45gsbwpwc.db"
/home/TSMC/45GS_GP_FRONT_NVT/digital/Front_End/timing_power_noise/NLDM/tcbn45gsbwp_120a/tcbn45gsbwpwc.db
set target_library_hvt "/home/TSMC/45GS_GP_FRONT_HVT/digital/Front_End/timing_power_noise/NLDM/tcbn45gsbwphvt_120a/tcbn45gsbwphvtwc.db"
/home/TSMC/45GS_GP_FRONT_HVT/digital/Front_End/timing_power_noise/NLDM/tcbn45gsbwphvt_120a/tcbn45gsbwphvtwc.db
set target_library_lvt "/home/TSMC/45GS_GP_FRONT_LVT/digital/Front_End/timing_power_noise/NLDM/tcbn45gsbwplvt_120a/tcbn45gsbwplvtwc.db"
/home/TSMC/45GS_GP_FRONT_LVT/digital/Front_End/timing_power_noise/NLDM/tcbn45gsbwplvt_120a/tcbn45gsbwplvtwc.db
set target_library "$target_library_nvt $target_library_hvt $target_library_lvt"
/home/TSMC/45GS_GP_FRONT_NVT/digital/Front_End/timing_power_noise/NLDM/tcbn45gsbwp_120a/tcbn45gsbwpwc.db /home/TSMC/45GS_GP_FRONT_HVT/digital/Front_End/timing_power_noise/NLDM/tcbn45gsbwphvt_120a/tcbn45gsbwphvtwc.db /home/TSMC/45GS_GP_FRONT_LVT/digital/Front_End/timing_power_noise/NLDM/tcbn45gsbwplvt_120a/tcbn45gsbwplvtwc.db
set link_library "$target_library $synthetic_library"
/home/TSMC/45GS_GP_FRONT_NVT/digital/Front_End/timing_power_noise/NLDM/tcbn45gsbwp_120a/tcbn45gsbwpwc.db /home/TSMC/45GS_GP_FRONT_HVT/digital/Front_End/timing_power_noise/NLDM/tcbn45gsbwphvt_120a/tcbn45gsbwphvtwc.db /home/TSMC/45GS_GP_FRONT_LVT/digital/Front_End/timing_power_noise/NLDM/tcbn45gsbwplvt_120a/tcbn45gsbwplvtwc.db /home/tools/DC_2/syn/J-2014.09-SP5-3/libraries/syn/dw_foundation.sldb /home/tools/DC_2/syn/J-2014.09-SP5-3/libraries/syn/standard.sldb
set LIB_PDB_nvt "/home/TSMC/45GS_GP_FRONT_NVT/digital/Front_End/physical_compiler/tcbn45gsbwp_110a/HVH_0d5_0/tcbn45gsbwp_9lm7X1ZRDL.pdb"
/home/TSMC/45GS_GP_FRONT_NVT/digital/Front_End/physical_compiler/tcbn45gsbwp_110a/HVH_0d5_0/tcbn45gsbwp_9lm7X1ZRDL.pdb
set LIB_PDB_hvt "/home/TSMC/45GS_GP_FRONT_HVT/digital/Front_End/physical_compiler/tcbn45gsbwphvt_110a/HVH_0d5_0/tcbn45gsbwphvt_9lm7X1ZRDL.pdb"
/home/TSMC/45GS_GP_FRONT_HVT/digital/Front_End/physical_compiler/tcbn45gsbwphvt_110a/HVH_0d5_0/tcbn45gsbwphvt_9lm7X1ZRDL.pdb
set LIB_PDB_lvt "/home/TSMC/45GS_GP_FRONT_LVT/digital/Front_End/physical_compiler/tcbn45gsbwplvt_110a/HVH_0d5_0/tcbn45gsbwplvt_9lm7X1ZRDL.pdb"
/home/TSMC/45GS_GP_FRONT_LVT/digital/Front_End/physical_compiler/tcbn45gsbwplvt_110a/HVH_0d5_0/tcbn45gsbwplvt_9lm7X1ZRDL.pdb
set LIB_PDB "$LIB_PDB_nvt $LIB_PDB_hvt $LIB_PDB_lvt"
/home/TSMC/45GS_GP_FRONT_NVT/digital/Front_End/physical_compiler/tcbn45gsbwp_110a/HVH_0d5_0/tcbn45gsbwp_9lm7X1ZRDL.pdb /home/TSMC/45GS_GP_FRONT_HVT/digital/Front_End/physical_compiler/tcbn45gsbwphvt_110a/HVH_0d5_0/tcbn45gsbwphvt_9lm7X1ZRDL.pdb /home/TSMC/45GS_GP_FRONT_LVT/digital/Front_End/physical_compiler/tcbn45gsbwplvt_110a/HVH_0d5_0/tcbn45gsbwplvt_9lm7X1ZRDL.pdb
set LIB_DB "$target_library"
/home/TSMC/45GS_GP_FRONT_NVT/digital/Front_End/timing_power_noise/NLDM/tcbn45gsbwp_120a/tcbn45gsbwpwc.db /home/TSMC/45GS_GP_FRONT_HVT/digital/Front_End/timing_power_noise/NLDM/tcbn45gsbwphvt_120a/tcbn45gsbwphvtwc.db /home/TSMC/45GS_GP_FRONT_LVT/digital/Front_End/timing_power_noise/NLDM/tcbn45gsbwplvt_120a/tcbn45gsbwplvtwc.db
set TECH_FILE_nvt "/home/TSMC/45GS_GP_FRONT_NVT/digital/Back_End/milkyway/tcbn45gsbwp_120a/techfiles/HVH_0d5_0/tsmcn45_9lm7X1ZRDL.tf"
/home/TSMC/45GS_GP_FRONT_NVT/digital/Back_End/milkyway/tcbn45gsbwp_120a/techfiles/HVH_0d5_0/tsmcn45_9lm7X1ZRDL.tf
set TECH_FILE_hvt "/home/TSMC/45GS_GP_FRONT_HVT/digital/Back_End/milkyway/tcbn45gsbwphvt_120a/techfiles/HVH_0d5_0/tsmcn45_9lm7X1ZRDL.tf"
/home/TSMC/45GS_GP_FRONT_HVT/digital/Back_End/milkyway/tcbn45gsbwphvt_120a/techfiles/HVH_0d5_0/tsmcn45_9lm7X1ZRDL.tf
set TECH_FILE_lvt "/home/TSMC/45GS_GP_FRONT_LVT/digital/Back_End/milkyway/tcbn45gsbwplvt_120a/techfiles/HVH_0d5_0/tsmcn45_9lm7X1ZRDL.tf"
/home/TSMC/45GS_GP_FRONT_LVT/digital/Back_End/milkyway/tcbn45gsbwplvt_120a/techfiles/HVH_0d5_0/tsmcn45_9lm7X1ZRDL.tf
set TECH_FILE "$TECH_FILE_nvt $TECH_FILE_hvt $TECH_FILE_lvt"
/home/TSMC/45GS_GP_FRONT_NVT/digital/Back_End/milkyway/tcbn45gsbwp_120a/techfiles/HVH_0d5_0/tsmcn45_9lm7X1ZRDL.tf /home/TSMC/45GS_GP_FRONT_HVT/digital/Back_End/milkyway/tcbn45gsbwphvt_120a/techfiles/HVH_0d5_0/tsmcn45_9lm7X1ZRDL.tf /home/TSMC/45GS_GP_FRONT_LVT/digital/Back_End/milkyway/tcbn45gsbwplvt_120a/techfiles/HVH_0d5_0/tsmcn45_9lm7X1ZRDL.tf
set REF_LIB_nvt "/home/TSMC/45GS_GP_FRONT_NVT/digital/Back_End/milkyway/tcbn45gsbwp_120a/frame_only_HVH_0d5_0/tcbn45gsbwp/"
/home/TSMC/45GS_GP_FRONT_NVT/digital/Back_End/milkyway/tcbn45gsbwp_120a/frame_only_HVH_0d5_0/tcbn45gsbwp/
set REF_LIB_hvt "/home/TSMC/45GS_GP_FRONT_HVT/digital/Back_End/milkyway/tcbn45gsbwphvt_120a/frame_only_HVH_0d5_0/tcbn45gsbwphvt/"
/home/TSMC/45GS_GP_FRONT_HVT/digital/Back_End/milkyway/tcbn45gsbwphvt_120a/frame_only_HVH_0d5_0/tcbn45gsbwphvt/
set REF_LIB_lvt "/home/TSMC/45GS_GP_FRONT_LVT/digital/Back_End/milkyway/tcbn45gsbwplvt_120a/frame_only_HVH_0d5_0/tcbn45gsbwplvt/"
/home/TSMC/45GS_GP_FRONT_LVT/digital/Back_End/milkyway/tcbn45gsbwplvt_120a/frame_only_HVH_0d5_0/tcbn45gsbwplvt/
set REF_LIB "$REF_LIB_nvt $REF_LIB_hvt $REF_LIB_lvt"
/home/TSMC/45GS_GP_FRONT_NVT/digital/Back_End/milkyway/tcbn45gsbwp_120a/frame_only_HVH_0d5_0/tcbn45gsbwp/ /home/TSMC/45GS_GP_FRONT_HVT/digital/Back_End/milkyway/tcbn45gsbwphvt_120a/frame_only_HVH_0d5_0/tcbn45gsbwphvt/ /home/TSMC/45GS_GP_FRONT_LVT/digital/Back_End/milkyway/tcbn45gsbwplvt_120a/frame_only_HVH_0d5_0/tcbn45gsbwplvt/
set target_library [concat $LIB_DB $target_library]
/home/TSMC/45GS_GP_FRONT_NVT/digital/Front_End/timing_power_noise/NLDM/tcbn45gsbwp_120a/tcbn45gsbwpwc.db /home/TSMC/45GS_GP_FRONT_HVT/digital/Front_End/timing_power_noise/NLDM/tcbn45gsbwphvt_120a/tcbn45gsbwphvtwc.db /home/TSMC/45GS_GP_FRONT_LVT/digital/Front_End/timing_power_noise/NLDM/tcbn45gsbwplvt_120a/tcbn45gsbwplvtwc.db /home/TSMC/45GS_GP_FRONT_NVT/digital/Front_End/timing_power_noise/NLDM/tcbn45gsbwp_120a/tcbn45gsbwpwc.db /home/TSMC/45GS_GP_FRONT_HVT/digital/Front_End/timing_power_noise/NLDM/tcbn45gsbwphvt_120a/tcbn45gsbwphvtwc.db /home/TSMC/45GS_GP_FRONT_LVT/digital/Front_End/timing_power_noise/NLDM/tcbn45gsbwplvt_120a/tcbn45gsbwplvtwc.db
set physical_library [concat $LIB_PDB]
/home/TSMC/45GS_GP_FRONT_NVT/digital/Front_End/physical_compiler/tcbn45gsbwp_110a/HVH_0d5_0/tcbn45gsbwp_9lm7X1ZRDL.pdb /home/TSMC/45GS_GP_FRONT_HVT/digital/Front_End/physical_compiler/tcbn45gsbwphvt_110a/HVH_0d5_0/tcbn45gsbwphvt_9lm7X1ZRDL.pdb /home/TSMC/45GS_GP_FRONT_LVT/digital/Front_End/physical_compiler/tcbn45gsbwplvt_110a/HVH_0d5_0/tcbn45gsbwplvt_9lm7X1ZRDL.pdb
if {[file exists "MWDESIGN"]} {
        exec rm -r MWDESIGN
}
create_mw_lib -technology $TECH_FILE_nvt -mw_reference_library "$REF_LIB_nvt $REF_LIB_hvt $REF_LIB_lvt" MWDESIGN
Start to load technology file /home/TSMC/45GS_GP_FRONT_NVT/digital/Back_End/milkyway/tcbn45gsbwp_120a/techfiles/HVH_0d5_0/tsmcn45_9lm7X1ZRDL.tf.
Warning: Layer 'AP' is missing the attribute 'minArea'. (line 791) (TFCHK-012)
Warning: Cut layer 'VIA1' has a non-cross primary default ContactCode 'VIA12'. (line 1256) (TFCHK-092)
Warning: DesignRule is missing the attribute 'endOfLineEncWidthThreshold'. (line 1922) (TFCHK-012)
Warning: DesignRule is missing the attribute 'endOfLineEncWidthThreshold'. (line 1930) (TFCHK-012)
Warning: DesignRule is missing the attribute 'endOfLineEncWidthThreshold'. (line 1938) (TFCHK-012)
Warning: DesignRule is missing the attribute 'endOfLineEncWidthThreshold'. (line 1946) (TFCHK-012)
Warning: DesignRule is missing the attribute 'endOfLineEncWidthThreshold'. (line 1954) (TFCHK-012)
Warning: DesignRule is missing the attribute 'endOfLineEncWidthThreshold'. (line 1962) (TFCHK-012)
Warning: DesignRule is missing the attribute 'endOfLineEncWidthThreshold'. (line 1970) (TFCHK-012)
Warning: Layer 'M1' has a pitch 0.14 that does not match the recommended wire-to-via pitch 0.17. (TFCHK-049)
Warning: Layer 'M8' has a pitch 0.14 that does not match the recommended wire-to-via pitch 0.305 or 0.365. (TFCHK-049)
Warning: Layer 'M9' has a pitch 0.8 that does not match the recommended wire-to-via pitch 2.6. (TFCHK-049)
Warning: Layer 'M3' has a pitch 0.14 that does not match the doubled pitch 0.28 or tripled pitch 0.42. (TFCHK-050)
Warning: Layer 'M4' has a pitch 0.14 that does not match the doubled pitch 0.28 or tripled pitch 0.42. (TFCHK-050)
Warning: Layer 'M5' has a pitch 0.14 that does not match the doubled pitch 0.28 or tripled pitch 0.42. (TFCHK-050)
Warning: Layer 'M6' has a pitch 0.14 that does not match the doubled pitch 0.28 or tripled pitch 0.42. (TFCHK-050)
Warning: Layer 'M7' has a pitch 0.14 that does not match the doubled pitch 0.28 or tripled pitch 0.42. (TFCHK-050)
Warning: Layer 'M8' has a pitch 0.14 that does not match the doubled pitch 0.28 or tripled pitch 0.42. (TFCHK-050)
Warning: Layer 'M9' has a pitch 0.8 that does not match the doubled pitch 0.28 or tripled pitch 0.42. (TFCHK-050)
Warning: Layer 'AP' has a pitch 5 that does not match the doubled pitch 0.28 or tripled pitch 0.42. (TFCHK-050)
Warning: CapModel sections are missing. Capacitance models should be loaded with a TLU+ file later. (TFCHK-084)
Technology file /home/TSMC/45GS_GP_FRONT_NVT/digital/Back_End/milkyway/tcbn45gsbwp_120a/techfiles/HVH_0d5_0/tsmcn45_9lm7X1ZRDL.tf has been loaded successfully.
open_mw_lib MWDESIGN
Warning: Reference Library Inconsistent With Main Library
Reference Library: /home/TSMC/45GS_GP_FRONT_NVT/digital/Back_End/milkyway/tcbn45gsbwp_120a/frame_only_HVH_0d5_0/tcbn45gsbwp (MWLIBP-300)
Warning: Inconsistent Number Of Metal Layers:
        10 (Main Library) <==> 11 (Reference Library). (MWLIBP-301)
Warning: Inconsistent Data for Layer 85
        Main Library (MWDESIGN)     |   Reference Library (tcbn45gsbwp)
        Mask Name      via9         |   via10    (MWLIBP-319)
Warning: Inconsistent Data for Layer 74
        Main Library (MWDESIGN)     |   Reference Library (tcbn45gsbwp)
        Mask Name      metal10      |   metal11  (MWLIBP-319)
Warning: Inconsistent Data for Contact Code 20
        Main Library (MWDESIGN)           |     Reference Library (tcbn45gsbwp)
        Cut Layer       VIA2 (70, 70)     |     VIA9 (360, 360)
        Lower Layer     M2 (0, 50)        |     M9 (80, 80)
        Upper Layer     M3 (50, 0)        |     M10 (80, 80)     (MWLIBP-324)
Warning: Inconsistent Data for Contact Code 21
        Main Library (MWDESIGN)           |     Reference Library (tcbn45gsbwp)
        Cut Layer       VIA3 (70, 70)     |     VIA1 (70, 70)
        Lower Layer     M3 (50, 0)        |     M1 (0, 50)
        Upper Layer     M4 (0, 50)        |     M2 (0, 50)       (MWLIBP-324)
Warning: Inconsistent Data for Contact Code 22
        Main Library (MWDESIGN)           |     Reference Library (tcbn45gsbwp)
        Cut Layer       VIA4 (70, 70)     |     VIA2 (70, 70)
        Lower Layer     M4 (0, 50)        |     M2 (0, 50)
        Upper Layer     M5 (50, 0)        |     M3 (50, 0)       (MWLIBP-324)
Warning: Inconsistent Data for Contact Code 23
        Main Library (MWDESIGN)           |     Reference Library (tcbn45gsbwp)
        Cut Layer       VIA5 (70, 70)     |     VIA3 (70, 70)
        Lower Layer     M5 (50, 0)        |     M3 (50, 0)
        Upper Layer     M6 (0, 50)        |     M4 (0, 50)       (MWLIBP-324)
Warning: Inconsistent Data for Contact Code 24
        Main Library (MWDESIGN)           |     Reference Library (tcbn45gsbwp)
        Cut Layer       VIA6 (70, 70)     |     VIA4 (70, 70)
        Lower Layer     M6 (0, 50)        |     M4 (0, 50)
        Upper Layer     M7 (50, 0)        |     M5 (50, 0)       (MWLIBP-324)
Warning: Inconsistent Data for Contact Code 25
        Main Library (MWDESIGN)           |     Reference Library (tcbn45gsbwp)
        Cut Layer       VIA7 (70, 70)     |     VIA5 (70, 70)
        Lower Layer     M7 (50, 0)        |     M5 (50, 0)
        Upper Layer     M8 (0, 50)        |     M6 (0, 50)       (MWLIBP-324)
Warning: Inconsistent Data for Contact Code 26
        Main Library (MWDESIGN)           |     Reference Library (tcbn45gsbwp)
        Cut Layer       VIA8 (360, 360)   |     VIA6 (70, 70)
        Lower Layer     M8 (20, 80)       |     M6 (0, 50)
        Upper Layer     M9 (80, 20)       |     M7 (50, 0)       (MWLIBP-324)
Warning: Inconsistent Data for Contact Code 27
        Main Library (MWDESIGN)           |     Reference Library (tcbn45gsbwp)
        Cut Layer       VIA1 (70, 70)     |     VIA7 (70, 70)
        Lower Layer     M1 (30, 30)       |     M7 (50, 0)
        Upper Layer     M2 (30, 30)       |     M8 (0, 50)       (MWLIBP-324)
Warning: Inconsistent Data for Contact Code 28
        Main Library (MWDESIGN)           |     Reference Library (tcbn45gsbwp)
        Cut Layer       VIA2 (70, 70)     |     VIA8 (360, 360)
        Lower Layer     M2 (30, 30)       |     M8 (20, 80)
        Upper Layer     M3 (30, 30)       |     M9 (80, 20)      (MWLIBP-324)
Warning: Inconsistent Data for Contact Code 29
        Main Library (MWDESIGN)           |     Reference Library (tcbn45gsbwp)
        Cut Layer       VIA3 (70, 70)     |     VIA9 (360, 360)
        Lower Layer     M3 (30, 30)       |     M9 (80, 20)
        Upper Layer     M4 (30, 30)       |     M10 (20, 80)     (MWLIBP-324)
Warning: Inconsistent Data for Contact Code 30
        Main Library (MWDESIGN)           |     Reference Library (tcbn45gsbwp)
        Cut Layer       VIA4 (70, 70)     |     VIA1 (70, 70)
        Lower Layer     M4 (30, 30)       |     M1 (30, 30)
        Upper Layer     M5 (30, 30)       |     M2 (30, 30)      (MWLIBP-324)
Warning: Inconsistent Data for Contact Code 31
        Main Library (MWDESIGN)           |     Reference Library (tcbn45gsbwp)
        Cut Layer       VIA5 (70, 70)     |     VIA2 (70, 70)
        Lower Layer     M5 (30, 30)       |     M2 (30, 30)
        Upper Layer     M6 (30, 30)       |     M3 (30, 30)      (MWLIBP-324)
Warning: Inconsistent Data for Contact Code 32
        Main Library (MWDESIGN)           |     Reference Library (tcbn45gsbwp)
        Cut Layer       VIA6 (70, 70)     |     VIA3 (70, 70)
        Lower Layer     M6 (30, 30)       |     M3 (30, 30)
        Upper Layer     M7 (30, 30)       |     M4 (30, 30)      (MWLIBP-324)
Warning: Inconsistent Data for Contact Code 33
        Main Library (MWDESIGN)           |     Reference Library (tcbn45gsbwp)
        Cut Layer       VIA7 (70, 70)     |     VIA4 (70, 70)
        Lower Layer     M7 (30, 30)       |     M4 (30, 30)
        Upper Layer     M8 (30, 30)       |     M5 (30, 30)      (MWLIBP-324)
Warning: Inconsistent Data for Contact Code 34
        Main Library (MWDESIGN)           |     Reference Library (tcbn45gsbwp)
        Cut Layer       VIA8 (360, 360)   |     VIA5 (70, 70)
        Lower Layer     M8 (80, 80)       |     M5 (30, 30)
        Upper Layer     M9 (80, 80)       |     M6 (30, 30)      (MWLIBP-324)
Warning: Inconsistent Data for Contact Code 35
        Main Library (MWDESIGN)           |     Reference Library (tcbn45gsbwp)
        Cut Layer       RV (3000, 3000)   |     VIA6 (70, 70)
        Lower Layer     M9 (500, 500)     |     M6 (30, 30)
        Upper Layer     AP (500, 500)     |     M7 (30, 30)      (MWLIBP-324)
Warning: Inconsistent Data for Contact Code 11
        Main Library (MWDESIGN)           |     Reference Library (tcbn45gsbwp)
        Cut Layer       VIA1 (70, 70)     |     VIA9 (360, 360)
        Lower Layer     M1 (30, 0)        |     M9 (80, 20)
        Upper Layer     M2 (30, 0)        |     M10 (20, 80)     (MWLIBP-324)
Warning: Inconsistent Data for Contact Code 12
        Main Library (MWDESIGN)           |     Reference Library (tcbn45gsbwp)
        Cut Layer       VIA2 (70, 70)     |     VIA1 (70, 70)
        Lower Layer     M2 (30, 0)        |     M1 (30, 0)
        Upper Layer     M3 (30, 0)        |     M2 (30, 0)       (MWLIBP-324)
Warning: Inconsistent Data for Contact Code 13
        Main Library (MWDESIGN)           |     Reference Library (tcbn45gsbwp)
        Cut Layer       VIA3 (70, 70)     |     VIA2 (70, 70)
        Lower Layer     M3 (30, 0)        |     M2 (30, 0)
        Upper Layer     M4 (30, 0)        |     M3 (30, 0)       (MWLIBP-324)
Warning: Inconsistent Data for Contact Code 14
        Main Library (MWDESIGN)           |     Reference Library (tcbn45gsbwp)
        Cut Layer       VIA4 (70, 70)     |     VIA3 (70, 70)
        Lower Layer     M4 (30, 0)        |     M3 (30, 0)
        Upper Layer     M5 (30, 0)        |     M4 (30, 0)       (MWLIBP-324)
Warning: Inconsistent Data for Contact Code 15
        Main Library (MWDESIGN)           |     Reference Library (tcbn45gsbwp)
        Cut Layer       VIA5 (70, 70)     |     VIA4 (70, 70)
        Lower Layer     M5 (30, 0)        |     M4 (30, 0)
        Upper Layer     M6 (30, 0)        |     M5 (30, 0)       (MWLIBP-324)
Warning: Inconsistent Data for Contact Code 16
        Main Library (MWDESIGN)           |     Reference Library (tcbn45gsbwp)
        Cut Layer       VIA6 (70, 70)     |     VIA5 (70, 70)
        Lower Layer     M6 (30, 0)        |     M5 (30, 0)
        Upper Layer     M7 (30, 0)        |     M6 (30, 0)       (MWLIBP-324)
Warning: Inconsistent Data for Contact Code 17
        Main Library (MWDESIGN)           |     Reference Library (tcbn45gsbwp)
        Cut Layer       VIA7 (70, 70)     |     VIA6 (70, 70)
        Lower Layer     M7 (30, 0)        |     M6 (30, 0)
        Upper Layer     M8 (30, 0)        |     M7 (30, 0)       (MWLIBP-324)
Warning: Inconsistent Data for Contact Code 18
        Main Library (MWDESIGN)           |     Reference Library (tcbn45gsbwp)
        Cut Layer       VIA8 (360, 360)   |     VIA7 (70, 70)
        Lower Layer     M8 (80, 80)       |     M7 (30, 0)
        Upper Layer     M9 (80, 80)       |     M8 (30, 0)       (MWLIBP-324)
Warning: Inconsistent Data for Contact Code 19
        Main Library (MWDESIGN)           |     Reference Library (tcbn45gsbwp)
        Cut Layer       VIA1 (70, 70)     |     VIA8 (360, 360)
        Lower Layer     M1 (0, 50)        |     M8 (80, 80)
        Upper Layer     M2 (0, 50)        |     M9 (80, 80)      (MWLIBP-324)
Warning: Reference Library Inconsistent With Main Library
Reference Library: /home/TSMC/45GS_GP_FRONT_HVT/digital/Back_End/milkyway/tcbn45gsbwphvt_120a/frame_only_HVH_0d5_0/tcbn45gsbwphvt (MWLIBP-300)
Warning: Inconsistent Number Of Metal Layers:
        10 (Main Library) <==> 11 (Reference Library). (MWLIBP-301)
Warning: Inconsistent Data for Layer 85
        Main Library (MWDESIGN)     |   Reference Library (tcbn45gsbwphvt)
        Mask Name      via9         |   via10    (MWLIBP-319)
Warning: Inconsistent Data for Layer 74
        Main Library (MWDESIGN)     |   Reference Library (tcbn45gsbwphvt)
        Mask Name      metal10      |   metal11  (MWLIBP-319)
Warning: Inconsistent Data for Contact Code 20
        Main Library (MWDESIGN)           |     Reference Library (tcbn45gsbwphvt)
        Cut Layer       VIA2 (70, 70)     |     VIA9 (360, 360)
        Lower Layer     M2 (0, 50)        |     M9 (80, 80)
        Upper Layer     M3 (50, 0)        |     M10 (80, 80)     (MWLIBP-324)
Warning: Inconsistent Data for Contact Code 21
        Main Library (MWDESIGN)           |     Reference Library (tcbn45gsbwphvt)
        Cut Layer       VIA3 (70, 70)     |     VIA1 (70, 70)
        Lower Layer     M3 (50, 0)        |     M1 (0, 50)
        Upper Layer     M4 (0, 50)        |     M2 (0, 50)       (MWLIBP-324)
Warning: Inconsistent Data for Contact Code 22
        Main Library (MWDESIGN)           |     Reference Library (tcbn45gsbwphvt)
        Cut Layer       VIA4 (70, 70)     |     VIA2 (70, 70)
        Lower Layer     M4 (0, 50)        |     M2 (0, 50)
        Upper Layer     M5 (50, 0)        |     M3 (50, 0)       (MWLIBP-324)
Warning: Inconsistent Data for Contact Code 23
        Main Library (MWDESIGN)           |     Reference Library (tcbn45gsbwphvt)
        Cut Layer       VIA5 (70, 70)     |     VIA3 (70, 70)
        Lower Layer     M5 (50, 0)        |     M3 (50, 0)
        Upper Layer     M6 (0, 50)        |     M4 (0, 50)       (MWLIBP-324)
Warning: Inconsistent Data for Contact Code 24
        Main Library (MWDESIGN)           |     Reference Library (tcbn45gsbwphvt)
        Cut Layer       VIA6 (70, 70)     |     VIA4 (70, 70)
        Lower Layer     M6 (0, 50)        |     M4 (0, 50)
        Upper Layer     M7 (50, 0)        |     M5 (50, 0)       (MWLIBP-324)
Warning: Inconsistent Data for Contact Code 25
        Main Library (MWDESIGN)           |     Reference Library (tcbn45gsbwphvt)
        Cut Layer       VIA7 (70, 70)     |     VIA5 (70, 70)
        Lower Layer     M7 (50, 0)        |     M5 (50, 0)
        Upper Layer     M8 (0, 50)        |     M6 (0, 50)       (MWLIBP-324)
Warning: Inconsistent Data for Contact Code 26
        Main Library (MWDESIGN)           |     Reference Library (tcbn45gsbwphvt)
        Cut Layer       VIA8 (360, 360)   |     VIA6 (70, 70)
        Lower Layer     M8 (20, 80)       |     M6 (0, 50)
        Upper Layer     M9 (80, 20)       |     M7 (50, 0)       (MWLIBP-324)
Warning: Inconsistent Data for Contact Code 27
        Main Library (MWDESIGN)           |     Reference Library (tcbn45gsbwphvt)
        Cut Layer       VIA1 (70, 70)     |     VIA7 (70, 70)
        Lower Layer     M1 (30, 30)       |     M7 (50, 0)
        Upper Layer     M2 (30, 30)       |     M8 (0, 50)       (MWLIBP-324)
Warning: Inconsistent Data for Contact Code 28
        Main Library (MWDESIGN)           |     Reference Library (tcbn45gsbwphvt)
        Cut Layer       VIA2 (70, 70)     |     VIA8 (360, 360)
        Lower Layer     M2 (30, 30)       |     M8 (20, 80)
        Upper Layer     M3 (30, 30)       |     M9 (80, 20)      (MWLIBP-324)
Warning: Inconsistent Data for Contact Code 29
        Main Library (MWDESIGN)           |     Reference Library (tcbn45gsbwphvt)
        Cut Layer       VIA3 (70, 70)     |     VIA9 (360, 360)
        Lower Layer     M3 (30, 30)       |     M9 (80, 20)
        Upper Layer     M4 (30, 30)       |     M10 (20, 80)     (MWLIBP-324)
Warning: Inconsistent Data for Contact Code 30
        Main Library (MWDESIGN)           |     Reference Library (tcbn45gsbwphvt)
        Cut Layer       VIA4 (70, 70)     |     VIA1 (70, 70)
        Lower Layer     M4 (30, 30)       |     M1 (30, 30)
        Upper Layer     M5 (30, 30)       |     M2 (30, 30)      (MWLIBP-324)
Warning: Inconsistent Data for Contact Code 31
        Main Library (MWDESIGN)           |     Reference Library (tcbn45gsbwphvt)
        Cut Layer       VIA5 (70, 70)     |     VIA2 (70, 70)
        Lower Layer     M5 (30, 30)       |     M2 (30, 30)
        Upper Layer     M6 (30, 30)       |     M3 (30, 30)      (MWLIBP-324)
Warning: Inconsistent Data for Contact Code 32
        Main Library (MWDESIGN)           |     Reference Library (tcbn45gsbwphvt)
        Cut Layer       VIA6 (70, 70)     |     VIA3 (70, 70)
        Lower Layer     M6 (30, 30)       |     M3 (30, 30)
        Upper Layer     M7 (30, 30)       |     M4 (30, 30)      (MWLIBP-324)
Warning: Inconsistent Data for Contact Code 33
        Main Library (MWDESIGN)           |     Reference Library (tcbn45gsbwphvt)
        Cut Layer       VIA7 (70, 70)     |     VIA4 (70, 70)
        Lower Layer     M7 (30, 30)       |     M4 (30, 30)
        Upper Layer     M8 (30, 30)       |     M5 (30, 30)      (MWLIBP-324)
Warning: Inconsistent Data for Contact Code 34
        Main Library (MWDESIGN)           |     Reference Library (tcbn45gsbwphvt)
        Cut Layer       VIA8 (360, 360)   |     VIA5 (70, 70)
        Lower Layer     M8 (80, 80)       |     M5 (30, 30)
        Upper Layer     M9 (80, 80)       |     M6 (30, 30)      (MWLIBP-324)
Warning: Inconsistent Data for Contact Code 35
        Main Library (MWDESIGN)           |     Reference Library (tcbn45gsbwphvt)
        Cut Layer       RV (3000, 3000)   |     VIA6 (70, 70)
        Lower Layer     M9 (500, 500)     |     M6 (30, 30)
        Upper Layer     AP (500, 500)     |     M7 (30, 30)      (MWLIBP-324)
Warning: Inconsistent Data for Contact Code 11
        Main Library (MWDESIGN)           |     Reference Library (tcbn45gsbwphvt)
        Cut Layer       VIA1 (70, 70)     |     VIA9 (360, 360)
        Lower Layer     M1 (30, 0)        |     M9 (80, 20)
        Upper Layer     M2 (30, 0)        |     M10 (20, 80)     (MWLIBP-324)
Warning: Inconsistent Data for Contact Code 12
        Main Library (MWDESIGN)           |     Reference Library (tcbn45gsbwphvt)
        Cut Layer       VIA2 (70, 70)     |     VIA1 (70, 70)
        Lower Layer     M2 (30, 0)        |     M1 (30, 0)
        Upper Layer     M3 (30, 0)        |     M2 (30, 0)       (MWLIBP-324)
Warning: Inconsistent Data for Contact Code 13
        Main Library (MWDESIGN)           |     Reference Library (tcbn45gsbwphvt)
        Cut Layer       VIA3 (70, 70)     |     VIA2 (70, 70)
        Lower Layer     M3 (30, 0)        |     M2 (30, 0)
        Upper Layer     M4 (30, 0)        |     M3 (30, 0)       (MWLIBP-324)
Warning: Inconsistent Data for Contact Code 14
        Main Library (MWDESIGN)           |     Reference Library (tcbn45gsbwphvt)
        Cut Layer       VIA4 (70, 70)     |     VIA3 (70, 70)
        Lower Layer     M4 (30, 0)        |     M3 (30, 0)
        Upper Layer     M5 (30, 0)        |     M4 (30, 0)       (MWLIBP-324)
Warning: Inconsistent Data for Contact Code 15
        Main Library (MWDESIGN)           |     Reference Library (tcbn45gsbwphvt)
        Cut Layer       VIA5 (70, 70)     |     VIA4 (70, 70)
        Lower Layer     M5 (30, 0)        |     M4 (30, 0)
        Upper Layer     M6 (30, 0)        |     M5 (30, 0)       (MWLIBP-324)
Warning: Inconsistent Data for Contact Code 16
        Main Library (MWDESIGN)           |     Reference Library (tcbn45gsbwphvt)
        Cut Layer       VIA6 (70, 70)     |     VIA5 (70, 70)
        Lower Layer     M6 (30, 0)        |     M5 (30, 0)
        Upper Layer     M7 (30, 0)        |     M6 (30, 0)       (MWLIBP-324)
Warning: Inconsistent Data for Contact Code 17
        Main Library (MWDESIGN)           |     Reference Library (tcbn45gsbwphvt)
        Cut Layer       VIA7 (70, 70)     |     VIA6 (70, 70)
        Lower Layer     M7 (30, 0)        |     M6 (30, 0)
        Upper Layer     M8 (30, 0)        |     M7 (30, 0)       (MWLIBP-324)
Warning: Inconsistent Data for Contact Code 18
        Main Library (MWDESIGN)           |     Reference Library (tcbn45gsbwphvt)
        Cut Layer       VIA8 (360, 360)   |     VIA7 (70, 70)
        Lower Layer     M8 (80, 80)       |     M7 (30, 0)
        Upper Layer     M9 (80, 80)       |     M8 (30, 0)       (MWLIBP-324)
Warning: Inconsistent Data for Contact Code 19
        Main Library (MWDESIGN)           |     Reference Library (tcbn45gsbwphvt)
        Cut Layer       VIA1 (70, 70)     |     VIA8 (360, 360)
        Lower Layer     M1 (0, 50)        |     M8 (80, 80)
        Upper Layer     M2 (0, 50)        |     M9 (80, 80)      (MWLIBP-324)
Warning: Reference Library Inconsistent With Main Library
Reference Library: /home/TSMC/45GS_GP_FRONT_LVT/digital/Back_End/milkyway/tcbn45gsbwplvt_120a/frame_only_HVH_0d5_0/tcbn45gsbwplvt (MWLIBP-300)
Warning: Inconsistent Number Of Metal Layers:
        10 (Main Library) <==> 11 (Reference Library). (MWLIBP-301)
Warning: Inconsistent Data for Layer 85
        Main Library (MWDESIGN)     |   Reference Library (tcbn45gsbwplvt)
        Mask Name      via9         |   via10    (MWLIBP-319)
Warning: Inconsistent Data for Layer 74
        Main Library (MWDESIGN)     |   Reference Library (tcbn45gsbwplvt)
        Mask Name      metal10      |   metal11  (MWLIBP-319)
Warning: Inconsistent Data for Contact Code 20
        Main Library (MWDESIGN)           |     Reference Library (tcbn45gsbwplvt)
        Cut Layer       VIA2 (70, 70)     |     VIA9 (360, 360)
        Lower Layer     M2 (0, 50)        |     M9 (80, 80)
        Upper Layer     M3 (50, 0)        |     M10 (80, 80)     (MWLIBP-324)
Warning: Inconsistent Data for Contact Code 21
        Main Library (MWDESIGN)           |     Reference Library (tcbn45gsbwplvt)
        Cut Layer       VIA3 (70, 70)     |     VIA1 (70, 70)
        Lower Layer     M3 (50, 0)        |     M1 (0, 50)
        Upper Layer     M4 (0, 50)        |     M2 (0, 50)       (MWLIBP-324)
Warning: Inconsistent Data for Contact Code 22
        Main Library (MWDESIGN)           |     Reference Library (tcbn45gsbwplvt)
        Cut Layer       VIA4 (70, 70)     |     VIA2 (70, 70)
        Lower Layer     M4 (0, 50)        |     M2 (0, 50)
        Upper Layer     M5 (50, 0)        |     M3 (50, 0)       (MWLIBP-324)
Warning: Inconsistent Data for Contact Code 23
        Main Library (MWDESIGN)           |     Reference Library (tcbn45gsbwplvt)
        Cut Layer       VIA5 (70, 70)     |     VIA3 (70, 70)
        Lower Layer     M5 (50, 0)        |     M3 (50, 0)
        Upper Layer     M6 (0, 50)        |     M4 (0, 50)       (MWLIBP-324)
Warning: Inconsistent Data for Contact Code 24
        Main Library (MWDESIGN)           |     Reference Library (tcbn45gsbwplvt)
        Cut Layer       VIA6 (70, 70)     |     VIA4 (70, 70)
        Lower Layer     M6 (0, 50)        |     M4 (0, 50)
        Upper Layer     M7 (50, 0)        |     M5 (50, 0)       (MWLIBP-324)
Warning: Inconsistent Data for Contact Code 25
        Main Library (MWDESIGN)           |     Reference Library (tcbn45gsbwplvt)
        Cut Layer       VIA7 (70, 70)     |     VIA5 (70, 70)
        Lower Layer     M7 (50, 0)        |     M5 (50, 0)
        Upper Layer     M8 (0, 50)        |     M6 (0, 50)       (MWLIBP-324)
Warning: Inconsistent Data for Contact Code 26
        Main Library (MWDESIGN)           |     Reference Library (tcbn45gsbwplvt)
        Cut Layer       VIA8 (360, 360)   |     VIA6 (70, 70)
        Lower Layer     M8 (20, 80)       |     M6 (0, 50)
        Upper Layer     M9 (80, 20)       |     M7 (50, 0)       (MWLIBP-324)
Warning: Inconsistent Data for Contact Code 27
        Main Library (MWDESIGN)           |     Reference Library (tcbn45gsbwplvt)
        Cut Layer       VIA1 (70, 70)     |     VIA7 (70, 70)
        Lower Layer     M1 (30, 30)       |     M7 (50, 0)
        Upper Layer     M2 (30, 30)       |     M8 (0, 50)       (MWLIBP-324)
Warning: Inconsistent Data for Contact Code 28
        Main Library (MWDESIGN)           |     Reference Library (tcbn45gsbwplvt)
        Cut Layer       VIA2 (70, 70)     |     VIA8 (360, 360)
        Lower Layer     M2 (30, 30)       |     M8 (20, 80)
        Upper Layer     M3 (30, 30)       |     M9 (80, 20)      (MWLIBP-324)
Warning: Inconsistent Data for Contact Code 29
        Main Library (MWDESIGN)           |     Reference Library (tcbn45gsbwplvt)
        Cut Layer       VIA3 (70, 70)     |     VIA9 (360, 360)
        Lower Layer     M3 (30, 30)       |     M9 (80, 20)
        Upper Layer     M4 (30, 30)       |     M10 (20, 80)     (MWLIBP-324)
Warning: Inconsistent Data for Contact Code 30
        Main Library (MWDESIGN)           |     Reference Library (tcbn45gsbwplvt)
        Cut Layer       VIA4 (70, 70)     |     VIA1 (70, 70)
        Lower Layer     M4 (30, 30)       |     M1 (30, 30)
        Upper Layer     M5 (30, 30)       |     M2 (30, 30)      (MWLIBP-324)
Warning: Inconsistent Data for Contact Code 31
        Main Library (MWDESIGN)           |     Reference Library (tcbn45gsbwplvt)
        Cut Layer       VIA5 (70, 70)     |     VIA2 (70, 70)
        Lower Layer     M5 (30, 30)       |     M2 (30, 30)
        Upper Layer     M6 (30, 30)       |     M3 (30, 30)      (MWLIBP-324)
Warning: Inconsistent Data for Contact Code 32
        Main Library (MWDESIGN)           |     Reference Library (tcbn45gsbwplvt)
        Cut Layer       VIA6 (70, 70)     |     VIA3 (70, 70)
        Lower Layer     M6 (30, 30)       |     M3 (30, 30)
        Upper Layer     M7 (30, 30)       |     M4 (30, 30)      (MWLIBP-324)
Warning: Inconsistent Data for Contact Code 33
        Main Library (MWDESIGN)           |     Reference Library (tcbn45gsbwplvt)
        Cut Layer       VIA7 (70, 70)     |     VIA4 (70, 70)
        Lower Layer     M7 (30, 30)       |     M4 (30, 30)
        Upper Layer     M8 (30, 30)       |     M5 (30, 30)      (MWLIBP-324)
Warning: Inconsistent Data for Contact Code 34
        Main Library (MWDESIGN)           |     Reference Library (tcbn45gsbwplvt)
        Cut Layer       VIA8 (360, 360)   |     VIA5 (70, 70)
        Lower Layer     M8 (80, 80)       |     M5 (30, 30)
        Upper Layer     M9 (80, 80)       |     M6 (30, 30)      (MWLIBP-324)
Warning: Inconsistent Data for Contact Code 35
        Main Library (MWDESIGN)           |     Reference Library (tcbn45gsbwplvt)
        Cut Layer       RV (3000, 3000)   |     VIA6 (70, 70)
        Lower Layer     M9 (500, 500)     |     M6 (30, 30)
        Upper Layer     AP (500, 500)     |     M7 (30, 30)      (MWLIBP-324)
Warning: Inconsistent Data for Contact Code 11
        Main Library (MWDESIGN)           |     Reference Library (tcbn45gsbwplvt)
        Cut Layer       VIA1 (70, 70)     |     VIA9 (360, 360)
        Lower Layer     M1 (30, 0)        |     M9 (80, 20)
        Upper Layer     M2 (30, 0)        |     M10 (20, 80)     (MWLIBP-324)
Warning: Inconsistent Data for Contact Code 12
        Main Library (MWDESIGN)           |     Reference Library (tcbn45gsbwplvt)
        Cut Layer       VIA2 (70, 70)     |     VIA1 (70, 70)
        Lower Layer     M2 (30, 0)        |     M1 (30, 0)
        Upper Layer     M3 (30, 0)        |     M2 (30, 0)       (MWLIBP-324)
Warning: Inconsistent Data for Contact Code 13
        Main Library (MWDESIGN)           |     Reference Library (tcbn45gsbwplvt)
        Cut Layer       VIA3 (70, 70)     |     VIA2 (70, 70)
        Lower Layer     M3 (30, 0)        |     M2 (30, 0)
        Upper Layer     M4 (30, 0)        |     M3 (30, 0)       (MWLIBP-324)
Warning: Inconsistent Data for Contact Code 14
        Main Library (MWDESIGN)           |     Reference Library (tcbn45gsbwplvt)
        Cut Layer       VIA4 (70, 70)     |     VIA3 (70, 70)
        Lower Layer     M4 (30, 0)        |     M3 (30, 0)
        Upper Layer     M5 (30, 0)        |     M4 (30, 0)       (MWLIBP-324)
Warning: Inconsistent Data for Contact Code 15
        Main Library (MWDESIGN)           |     Reference Library (tcbn45gsbwplvt)
        Cut Layer       VIA5 (70, 70)     |     VIA4 (70, 70)
        Lower Layer     M5 (30, 0)        |     M4 (30, 0)
        Upper Layer     M6 (30, 0)        |     M5 (30, 0)       (MWLIBP-324)
Warning: Inconsistent Data for Contact Code 16
        Main Library (MWDESIGN)           |     Reference Library (tcbn45gsbwplvt)
        Cut Layer       VIA6 (70, 70)     |     VIA5 (70, 70)
        Lower Layer     M6 (30, 0)        |     M5 (30, 0)
        Upper Layer     M7 (30, 0)        |     M6 (30, 0)       (MWLIBP-324)
Warning: Inconsistent Data for Contact Code 17
        Main Library (MWDESIGN)           |     Reference Library (tcbn45gsbwplvt)
        Cut Layer       VIA7 (70, 70)     |     VIA6 (70, 70)
        Lower Layer     M7 (30, 0)        |     M6 (30, 0)
        Upper Layer     M8 (30, 0)        |     M7 (30, 0)       (MWLIBP-324)
Warning: Inconsistent Data for Contact Code 18
        Main Library (MWDESIGN)           |     Reference Library (tcbn45gsbwplvt)
        Cut Layer       VIA8 (360, 360)   |     VIA7 (70, 70)
        Lower Layer     M8 (80, 80)       |     M7 (30, 0)
        Upper Layer     M9 (80, 80)       |     M8 (30, 0)       (MWLIBP-324)
Warning: Inconsistent Data for Contact Code 19
        Main Library (MWDESIGN)           |     Reference Library (tcbn45gsbwplvt)
        Cut Layer       VIA1 (70, 70)     |     VIA8 (360, 360)
        Lower Layer     M1 (0, 50)        |     M8 (80, 80)
        Upper Layer     M2 (0, 50)        |     M9 (80, 80)      (MWLIBP-324)
{MWDESIGN}
############################## ANALYZE #######################################
analyze -format vhdl ../source/ISA_functions_pkg.vhd
Running PRESTO HDLC
Compiling Package Declaration FUNCTIONS_PKG
Compiling Package Body FUNCTIONS_PKG
Presto compilation completed successfully.
Loading db file '/home/TSMC/45GS_GP_FRONT_NVT/digital/Front_End/timing_power_noise/NLDM/tcbn45gsbwp_120a/tcbn45gsbwpwc.db'
Loading db file '/home/TSMC/45GS_GP_FRONT_HVT/digital/Front_End/timing_power_noise/NLDM/tcbn45gsbwphvt_120a/tcbn45gsbwphvtwc.db'
Loading db file '/home/TSMC/45GS_GP_FRONT_LVT/digital/Front_End/timing_power_noise/NLDM/tcbn45gsbwplvt_120a/tcbn45gsbwplvtwc.db'
Loading db file '/home/tools/DC_2/syn/J-2014.09-SP5-3/libraries/syn/dw_foundation.sldb'
Loading db file '/home/tools/DC_2/syn/J-2014.09-SP5-3/libraries/syn/standard.sldb'
1
analyze -format vhdl ../source/ADD_stage.vhd
Running PRESTO HDLC
Compiling Entity Declaration ADD_STAGE
Compiling Architecture STANDARD of ADD_STAGE
Warning:  ../source/ADD_stage.vhd:32: The architecture standard has already been analyzed. It is being replaced. (VHD-4)
Compiling Entity Declaration ADD
Compiling Architecture STANDARD of ADD
Warning:  ../source/ADD_stage.vhd:87: The architecture standard has already been analyzed. It is being replaced. (VHD-4)
Presto compilation completed successfully.
1
analyze -format vhdl ../source/SPEC_stage.vhd
Running PRESTO HDLC
Compiling Entity Declaration SPEC_STAGE
Compiling Architecture STANDARD of SPEC_STAGE
Compiling Entity Declaration SPEC
Compiling Architecture STANDARD of SPEC
Presto compilation completed successfully.
1
analyze -format vhdl ../source/COMP_stage.vhd
Running PRESTO HDLC
Compiling Entity Declaration COMP_STAGE
Compiling Architecture STANDARD of COMP_STAGE
Compiling Entity Declaration COMP_S
Compiling Architecture STANDARD of COMP_S
Compiling Entity Declaration COMP_N
Compiling Architecture STANDARD of COMP_N
Presto compilation completed successfully.
1
analyze -format vhdl ../source/ISA.vhd
Running PRESTO HDLC
Compiling Entity Declaration ISA
Compiling Architecture STANDARD of ISA
Warning:  ../source/ISA.vhd:35: The architecture standard has already been analyzed. It is being replaced. (VHD-4)
Presto compilation completed successfully.
1
analyze -format vhdl ../source/ADDER32CLK_wrapper.vhd
Running PRESTO HDLC
Compiling Entity Declaration ADDER32CLK
Compiling Architecture RTL of ADDER32CLK
Warning:  ../source/ADDER32CLK_wrapper.vhd:29: The architecture RTL has already been analyzed. It is being replaced. (VHD-4)
Presto compilation completed successfully.
1
elaborate $dname
Loading db file '/home/tools/DC_2/syn/J-2014.09-SP5-3/libraries/syn/gtech.db'
  Loading link library 'tcbn45gsbwpwc'
  Loading link library 'tcbn45gsbwphvtwc'
  Loading link library 'tcbn45gsbwplvtwc'
  Loading link library 'gtech'
Running PRESTO HDLC

Inferred memory devices in process
        in routine ADDER32CLK line 81 in file
                '../source/ADDER32CLK_wrapper.vhd'.
===============================================================================
|    Register Name    |   Type    | Width | Bus | MB | AR | AS | SR | SS | ST |
===============================================================================
|        a_reg        | Flip-flop |  32   |  Y  | N  | N  | N  | N  | N  | N  |
|        b_reg        | Flip-flop |  32   |  Y  | N  | N  | N  | N  | N  | N  |
|        c_reg        | Flip-flop |   1   |  N  | N  | N  | N  | N  | N  | N  |
|      out_s_reg      | Flip-flop |  33   |  Y  | N  | N  | N  | N  | N  | N  |
===============================================================================
Presto compilation completed successfully.
Elaborated 1 design.
Current design is now 'ADDER32CLK'.
Information: Building the design 'ISA' instantiated from design 'ADDER32CLK' with
        the parameters "ADDER_WIDTH=32,BLOCK_NB=8,ADD_REG="45643244",SPEC_REG="-1232100",GUESS_REG="-01ABPX-",TEST_REG="-SSSSSSS",COR_REG="-1230000",RED_REG="-0032100"". (HDL-193)
Presto compilation completed successfully.
Information: Building the design 'SPEC_stage' instantiated from design 'ISA_ADDER_WIDTH32_BLOCK_NB8_ADD_REG45643244_SPEC_REG_1232100_GUESS_REG_01ABPX__TEST_REG_SSSSSSS_COR_REG_1230000_RED_REG_0032100' with
        the parameters "ADDER_WIDTH=32,BLOCK_NB=8,ADD_REG="45643244",SPEC_REG="-1232100",GUESS_REG="-01ABPX-"". (HDL-193)
Warning:  ../source/SPEC_stage.vhd:61: the direction (to or downto) does not agree with the values first and last in the range.  (ELAB-935)
Warning:  ../source/SPEC_stage.vhd:61: the direction (to or downto) does not agree with the values first and last in the range.  (ELAB-935)
Presto compilation completed successfully.
Information: Building the design 'ADD_stage' instantiated from design 'ISA_ADDER_WIDTH32_BLOCK_NB8_ADD_REG45643244_SPEC_REG_1232100_GUESS_REG_01ABPX__TEST_REG_SSSSSSS_COR_REG_1230000_RED_REG_0032100' with
        the parameters "ADDER_WIDTH=32,BLOCK_NB=8,ADD_REG="45643244"". (HDL-193)
Presto compilation completed successfully.
Information: Building the design 'COMP_stage' instantiated from design 'ISA_ADDER_WIDTH32_BLOCK_NB8_ADD_REG45643244_SPEC_REG_1232100_GUESS_REG_01ABPX__TEST_REG_SSSSSSS_COR_REG_1230000_RED_REG_0032100' with
        the parameters "ADDER_WIDTH=32,BLOCK_NB=8,ADD_REG="45643244",GUESS_REG="-01ABPX-",TEST_REG="-SSSSSSS",COR_REG="-1230000",RED_REG="-0032100"". (HDL-193)
Warning:  ../source/COMP_stage.vhd:96: the direction (to or downto) does not agree with the values first and last in the range.  (ELAB-935)
Warning:  ../source/COMP_stage.vhd:96: the direction (to or downto) does not agree with the values first and last in the range.  (ELAB-935)
Warning:  ../source/COMP_stage.vhd:96: the direction (to or downto) does not agree with the values first and last in the range.  (ELAB-935)
Warning:  ../source/COMP_stage.vhd:96: the direction (to or downto) does not agree with the values first and last in the range.  (ELAB-935)
Warning:  ../source/COMP_stage.vhd:96: the direction (to or downto) does not agree with the values first and last in the range.  (ELAB-935)
Warning:  ../source/COMP_stage.vhd:96: the direction (to or downto) does not agree with the values first and last in the range.  (ELAB-935)
Warning:  ../source/COMP_stage.vhd:96: the direction (to or downto) does not agree with the values first and last in the range.  (ELAB-935)
Warning:  ../source/COMP_stage.vhd:96: the direction (to or downto) does not agree with the values first and last in the range.  (ELAB-935)
Warning:  ../source/COMP_stage.vhd:96: the direction (to or downto) does not agree with the values first and last in the range.  (ELAB-935)
Warning:  ../source/COMP_stage.vhd:96: the direction (to or downto) does not agree with the values first and last in the range.  (ELAB-935)
Warning:  ../source/COMP_stage.vhd:96: the direction (to or downto) does not agree with the values first and last in the range.  (ELAB-935)
Warning:  ../source/COMP_stage.vhd:96: the direction (to or downto) does not agree with the values first and last in the range.  (ELAB-935)
Warning:  ../source/COMP_stage.vhd:96: the direction (to or downto) does not agree with the values first and last in the range.  (ELAB-935)
Warning:  ../source/COMP_stage.vhd:96: the direction (to or downto) does not agree with the values first and last in the range.  (ELAB-935)
Warning:  ../source/COMP_stage.vhd:96: the direction (to or downto) does not agree with the values first and last in the range.  (ELAB-935)
Warning:  ../source/COMP_stage.vhd:96: the direction (to or downto) does not agree with the values first and last in the range.  (ELAB-935)
Presto compilation completed successfully.
Information: Building the design 'SPEC' instantiated from design 'SPEC_stage_ADDER_WIDTH32_BLOCK_NB8_ADD_REG45643244_SPEC_REG_1232100_GUESS_REG_01ABPX_' with
        the parameters "SPEC_WIDTH=0". (HDL-193)
Warning:  ../source/SPEC_stage.vhd:0: the direction (to or downto) does not agree with the values first and last in the range.  (ELAB-935)
Warning:  ../source/SPEC_stage.vhd:0: the direction (to or downto) does not agree with the values first and last in the range.  (ELAB-935)
Warning:  ../source/SPEC_stage.vhd:129: the direction (to or downto) does not agree with the values first and last in the range.  (ELAB-935)
Warning:  ../source/SPEC_stage.vhd:130: the direction (to or downto) does not agree with the values first and last in the range.  (ELAB-935)
Warning:  ../source/SPEC_stage.vhd:142: the direction (to or downto) does not agree with the values first and last in the range.  (ELAB-935)
Warning:  ../source/SPEC_stage.vhd:143: the direction (to or downto) does not agree with the values first and last in the range.  (ELAB-935)
Presto compilation completed successfully.
Information: Building the design 'SPEC' instantiated from design 'SPEC_stage_ADDER_WIDTH32_BLOCK_NB8_ADD_REG45643244_SPEC_REG_1232100_GUESS_REG_01ABPX_' with
        the parameters "SPEC_WIDTH=1". (HDL-193)
Presto compilation completed successfully.
Information: Building the design 'SPEC' instantiated from design 'SPEC_stage_ADDER_WIDTH32_BLOCK_NB8_ADD_REG45643244_SPEC_REG_1232100_GUESS_REG_01ABPX_' with
        the parameters "SPEC_WIDTH=2". (HDL-193)
Presto compilation completed successfully.
Information: Building the design 'SPEC' instantiated from design 'SPEC_stage_ADDER_WIDTH32_BLOCK_NB8_ADD_REG45643244_SPEC_REG_1232100_GUESS_REG_01ABPX_' with
        the parameters "SPEC_WIDTH=3". (HDL-193)
Presto compilation completed successfully.
Information: Building the design 'ADD' instantiated from design 'ADD_stage_ADDER_WIDTH32_BLOCK_NB8_ADD_REG45643244' with
        the parameters "ADD_WIDTH=4". (HDL-193)
Presto compilation completed successfully.
Information: Building the design 'ADD' instantiated from design 'ADD_stage_ADDER_WIDTH32_BLOCK_NB8_ADD_REG45643244' with
        the parameters "ADD_WIDTH=2". (HDL-193)
Presto compilation completed successfully.
Information: Building the design 'ADD' instantiated from design 'ADD_stage_ADDER_WIDTH32_BLOCK_NB8_ADD_REG45643244' with
        the parameters "ADD_WIDTH=3". (HDL-193)
Presto compilation completed successfully.
Information: Building the design 'ADD' instantiated from design 'ADD_stage_ADDER_WIDTH32_BLOCK_NB8_ADD_REG45643244' with
        the parameters "ADD_WIDTH=6". (HDL-193)
Presto compilation completed successfully.
Information: Building the design 'ADD' instantiated from design 'ADD_stage_ADDER_WIDTH32_BLOCK_NB8_ADD_REG45643244' with
        the parameters "ADD_WIDTH=5". (HDL-193)
Presto compilation completed successfully.
Information: Building the design 'COMP_S' instantiated from design 'COMP_stage_ADDER_WIDTH32_BLOCK_NB8_ADD_REG45643244_GUESS_REG_01ABPX__TEST_REG_SSSSSSS_COR_REG_1230000_RED_REG_0032100' with
        the parameters "GUESS=8'h2d,COR=0,RED=0". (HDL-193)
Warning:  ../source/COMP_stage.vhd:0: the direction (to or downto) does not agree with the values first and last in the range.  (ELAB-935)
Warning:  ../source/COMP_stage.vhd:0: the direction (to or downto) does not agree with the values first and last in the range.  (ELAB-935)
Warning:  ../source/COMP_stage.vhd:0: the direction (to or downto) does not agree with the values first and last in the range.  (ELAB-935)
Warning:  ../source/COMP_stage.vhd:0: the direction (to or downto) does not agree with the values first and last in the range.  (ELAB-935)
Warning:  ../source/COMP_stage.vhd:156: the direction (to or downto) does not agree with the values first and last in the range.  (ELAB-935)
Warning:  ../source/COMP_stage.vhd:157: the direction (to or downto) does not agree with the values first and last in the range.  (ELAB-935)
Warning:  ../source/COMP_stage.vhd:160: the direction (to or downto) does not agree with the values first and last in the range.  (ELAB-935)
Warning:  ../source/COMP_stage.vhd:161: the direction (to or downto) does not agree with the values first and last in the range.  (ELAB-935)
Presto compilation completed successfully.
Information: Building the design 'COMP_S' instantiated from design 'COMP_stage_ADDER_WIDTH32_BLOCK_NB8_ADD_REG45643244_GUESS_REG_01ABPX__TEST_REG_SSSSSSS_COR_REG_1230000_RED_REG_0032100' with
        the parameters "GUESS=8'h58,COR=0,RED=0". (HDL-193)
Warning:  ../source/COMP_stage.vhd:0: the direction (to or downto) does not agree with the values first and last in the range.  (ELAB-935)
Warning:  ../source/COMP_stage.vhd:0: the direction (to or downto) does not agree with the values first and last in the range.  (ELAB-935)
Warning:  ../source/COMP_stage.vhd:0: the direction (to or downto) does not agree with the values first and last in the range.  (ELAB-935)
Warning:  ../source/COMP_stage.vhd:0: the direction (to or downto) does not agree with the values first and last in the range.  (ELAB-935)
Warning:  ../source/COMP_stage.vhd:156: the direction (to or downto) does not agree with the values first and last in the range.  (ELAB-935)
Warning:  ../source/COMP_stage.vhd:157: the direction (to or downto) does not agree with the values first and last in the range.  (ELAB-935)
Warning:  ../source/COMP_stage.vhd:160: the direction (to or downto) does not agree with the values first and last in the range.  (ELAB-935)
Warning:  ../source/COMP_stage.vhd:161: the direction (to or downto) does not agree with the values first and last in the range.  (ELAB-935)
Presto compilation completed successfully.
Information: Building the design 'COMP_S' instantiated from design 'COMP_stage_ADDER_WIDTH32_BLOCK_NB8_ADD_REG45643244_GUESS_REG_01ABPX__TEST_REG_SSSSSSS_COR_REG_1230000_RED_REG_0032100' with
        the parameters "GUESS=8'h50,COR=0,RED=1". (HDL-193)
Warning:  ../source/COMP_stage.vhd:0: the direction (to or downto) does not agree with the values first and last in the range.  (ELAB-935)
Warning:  ../source/COMP_stage.vhd:0: the direction (to or downto) does not agree with the values first and last in the range.  (ELAB-935)
Warning:  ../source/COMP_stage.vhd:156: the direction (to or downto) does not agree with the values first and last in the range.  (ELAB-935)
Warning:  ../source/COMP_stage.vhd:160: the direction (to or downto) does not agree with the values first and last in the range.  (ELAB-935)
Presto compilation completed successfully.
Information: Building the design 'COMP_S' instantiated from design 'COMP_stage_ADDER_WIDTH32_BLOCK_NB8_ADD_REG45643244_GUESS_REG_01ABPX__TEST_REG_SSSSSSS_COR_REG_1230000_RED_REG_0032100' with
        the parameters "GUESS=8'h42,COR=0,RED=2". (HDL-193)
Warning:  ../source/COMP_stage.vhd:0: the direction (to or downto) does not agree with the values first and last in the range.  (ELAB-935)
Warning:  ../source/COMP_stage.vhd:0: the direction (to or downto) does not agree with the values first and last in the range.  (ELAB-935)
Warning:  ../source/COMP_stage.vhd:156: the direction (to or downto) does not agree with the values first and last in the range.  (ELAB-935)
Warning:  ../source/COMP_stage.vhd:160: the direction (to or downto) does not agree with the values first and last in the range.  (ELAB-935)
Presto compilation completed successfully.
Information: Building the design 'COMP_S' instantiated from design 'COMP_stage_ADDER_WIDTH32_BLOCK_NB8_ADD_REG45643244_GUESS_REG_01ABPX__TEST_REG_SSSSSSS_COR_REG_1230000_RED_REG_0032100' with
        the parameters "GUESS=8'h41,COR=3,RED=3". (HDL-193)
Presto compilation completed successfully.
Information: Building the design 'COMP_S' instantiated from design 'COMP_stage_ADDER_WIDTH32_BLOCK_NB8_ADD_REG45643244_GUESS_REG_01ABPX__TEST_REG_SSSSSSS_COR_REG_1230000_RED_REG_0032100' with
        the parameters "GUESS=8'h31,COR=2,RED=0". (HDL-193)
Warning:  ../source/COMP_stage.vhd:0: the direction (to or downto) does not agree with the values first and last in the range.  (ELAB-935)
Warning:  ../source/COMP_stage.vhd:0: the direction (to or downto) does not agree with the values first and last in the range.  (ELAB-935)
Warning:  ../source/COMP_stage.vhd:157: the direction (to or downto) does not agree with the values first and last in the range.  (ELAB-935)
Warning:  ../source/COMP_stage.vhd:161: the direction (to or downto) does not agree with the values first and last in the range.  (ELAB-935)
Presto compilation completed successfully.
Information: Building the design 'COMP_S' instantiated from design 'COMP_stage_ADDER_WIDTH32_BLOCK_NB8_ADD_REG45643244_GUESS_REG_01ABPX__TEST_REG_SSSSSSS_COR_REG_1230000_RED_REG_0032100' with
        the parameters "GUESS=8'h30,COR=1,RED=0". (HDL-193)
Warning:  ../source/COMP_stage.vhd:0: the direction (to or downto) does not agree with the values first and last in the range.  (ELAB-935)
Warning:  ../source/COMP_stage.vhd:0: the direction (to or downto) does not agree with the values first and last in the range.  (ELAB-935)
Warning:  ../source/COMP_stage.vhd:157: the direction (to or downto) does not agree with the values first and last in the range.  (ELAB-935)
Warning:  ../source/COMP_stage.vhd:161: the direction (to or downto) does not agree with the values first and last in the range.  (ELAB-935)
Presto compilation completed successfully.
1
link

  Linking design 'ADDER32CLK'
  Using the following designs and libraries:
  --------------------------------------------------------------------------
  tcbn45gsbwpwc (library)     /home/TSMC/45GS_GP_FRONT_NVT/digital/Front_End/timing_power_noise/NLDM/tcbn45gsbwp_120a/tcbn45gsbwpwc.db
  tcbn45gsbwphvtwc (library)  /home/TSMC/45GS_GP_FRONT_HVT/digital/Front_End/timing_power_noise/NLDM/tcbn45gsbwphvt_120a/tcbn45gsbwphvtwc.db
  tcbn45gsbwplvtwc (library)  /home/TSMC/45GS_GP_FRONT_LVT/digital/Front_End/timing_power_noise/NLDM/tcbn45gsbwplvt_120a/tcbn45gsbwplvtwc.db
  dw_foundation.sldb (library) /home/tools/DC_2/syn/J-2014.09-SP5-3/libraries/syn/dw_foundation.sldb

1
############################## CONSTRAINTS ###################################
create_clock -period 1.0 clk
1
set_ideal_network {clk}
1
set_input_delay 0.01 -max -clock clk -add_delay {in_a, in_b, in_c}
Warning: Can't find object 'in_a,' in design 'ADDER32CLK'. (UID-95)
Warning: Can't find object 'in_b,' in design 'ADDER32CLK'. (UID-95)
1
set_output_delay 0.01 -max -clock clk -add_delay  {out_s}
1
set_max_leakage_power 0
Information: Command 'set_max_leakage_power' is obsolete and is being ignored. (INFO-102)
0
set_max_dynamic_power 0
Information: Command 'set_max_dynamic_power' is obsolete and is being ignored. (INFO-102)
0
set Coordinates_PLACEMENT [list 0.0 0.0 100.0 400.0]
0.0 0.0 100.0 400.0
set_placement_area -coordinate $Coordinates_PLACEMENT -fixed
Information: linking reference library : /home/TSMC/45GS_GP_FRONT_NVT/digital/Back_End/milkyway/tcbn45gsbwp_120a/frame_only_HVH_0d5_0/tcbn45gsbwp. (PSYN-878)
Information: linking reference library : /home/TSMC/45GS_GP_FRONT_HVT/digital/Back_End/milkyway/tcbn45gsbwphvt_120a/frame_only_HVH_0d5_0/tcbn45gsbwphvt. (PSYN-878)
Information: linking reference library : /home/TSMC/45GS_GP_FRONT_LVT/digital/Back_End/milkyway/tcbn45gsbwplvt_120a/frame_only_HVH_0d5_0/tcbn45gsbwplvt. (PSYN-878)

  Linking design 'ADDER32CLK'
  Using the following designs and libraries:
  --------------------------------------------------------------------------
  tcbn45gsbwpwc (library)     /home/TSMC/45GS_GP_FRONT_NVT/digital/Front_End/timing_power_noise/NLDM/tcbn45gsbwp_120a/tcbn45gsbwpwc.db
  tcbn45gsbwphvtwc (library)  /home/TSMC/45GS_GP_FRONT_HVT/digital/Front_End/timing_power_noise/NLDM/tcbn45gsbwphvt_120a/tcbn45gsbwphvtwc.db
  tcbn45gsbwplvtwc (library)  /home/TSMC/45GS_GP_FRONT_LVT/digital/Front_End/timing_power_noise/NLDM/tcbn45gsbwplvt_120a/tcbn45gsbwplvtwc.db
  dw_foundation.sldb (library) /home/tools/DC_2/syn/J-2014.09-SP5-3/libraries/syn/dw_foundation.sldb

Warning: layerNumber 40 does not exist or is out of range. (MWLIBP-311)
Information: No preferred routing direction is found for design layer M1. Automatically deriving direction H. (DCT-035)
Information: No preferred routing direction is found for design layer M2. Automatically deriving direction V. (DCT-035)
Information: No preferred routing direction is found for design layer M3. Automatically deriving direction H. (DCT-035)
Information: No preferred routing direction is found for design layer M4. Automatically deriving direction V. (DCT-035)
Information: No preferred routing direction is found for design layer M5. Automatically deriving direction H. (DCT-035)
Information: No preferred routing direction is found for design layer M6. Automatically deriving direction V. (DCT-035)
Information: No preferred routing direction is found for design layer M7. Automatically deriving direction H. (DCT-035)
Information: No preferred routing direction is found for design layer M8. Automatically deriving direction V. (DCT-035)
Information: No preferred routing direction is found for design layer M9. Automatically deriving direction H. (DCT-035)
Information: No preferred routing direction is found for design layer AP. Automatically deriving direction H. (DCT-035)
1
############################## COMPILE #######################################
compile_ultra 
Information: Performing power optimization. (PWR-850)
Alib files are up-to-date.
Warning: No TLUPlus file identified. (DCT-034)
Warning: Layer 'M1' is missing the optional 'edge capacitance' attribute. (PSYN-101)
Warning: Layer 'M2' is missing the optional 'edge capacitance' attribute. (PSYN-101)
Warning: Layer 'M3' is missing the optional 'edge capacitance' attribute. (PSYN-101)
Warning: Layer 'M4' is missing the optional 'edge capacitance' attribute. (PSYN-101)
Warning: Layer 'M5' is missing the optional 'edge capacitance' attribute. (PSYN-101)
Warning: Layer 'M6' is missing the optional 'edge capacitance' attribute. (PSYN-101)
Warning: Layer 'M7' is missing the optional 'edge capacitance' attribute. (PSYN-101)
Warning: Layer 'M8' is missing the optional 'edge capacitance' attribute. (PSYN-101)
Warning: Layer 'M9' is missing the optional 'edge capacitance' attribute. (PSYN-101)
Warning: Layer 'AP' is missing the optional 'edge capacitance' attribute. (PSYN-101)
Information: Running optimization using a maximum of 2 cores. (OPT-1500)
Information: Evaluating DesignWare library utilization. (UISN-27)

============================================================================
| DesignWare Building Block Library  |         Version         | Available |
============================================================================
| Basic DW Building Blocks           | J-2014.09-DWBB_201409.5.2 |   *     |
| Licensed DW Building Blocks        | J-2014.09-DWBB_201409.5.2 |   *     |
============================================================================

Information: Sequential output inversion is enabled.  SVF file must be used for formal verification. (OPT-1208)

Information: There are 82 potential problems in your design. Please run 'check_design' for more information. (LINT-99)


Information: The distance unit in Capacitance and Resistance is 1 micron. (RCEX-007)
Information: The RC model used is library 1D. (RCEX-015)
Information: Library Derived Cap for layer M1 : 2.6e-05 2.6e-05 (RCEX-011)
Information: Library Derived Res for layer M1 : 0.0044 0.0044 (RCEX-011)
Information: Library Derived Cap for layer M2 : 7.5e-06 7.5e-06 (RCEX-011)
Information: Library Derived Res for layer M2 : 0.004 0.004 (RCEX-011)
Information: Library Derived Cap for layer M3 : 4e-06 4e-06 (RCEX-011)
Information: Library Derived Res for layer M3 : 0.004 0.004 (RCEX-011)
Information: Library Derived Cap for layer M4 : 2.8e-06 2.8e-06 (RCEX-011)
Information: Library Derived Res for layer M4 : 0.004 0.004 (RCEX-011)
Information: Library Derived Cap for layer M5 : 2.1e-06 2.1e-06 (RCEX-011)
Information: Library Derived Res for layer M5 : 0.004 0.004 (RCEX-011)
Information: Library Derived Cap for layer M6 : 1.7e-06 1.7e-06 (RCEX-011)
Information: Library Derived Res for layer M6 : 0.004 0.004 (RCEX-011)
Information: Library Derived Cap for layer M7 : 1.4e-06 1.4e-06 (RCEX-011)
Information: Library Derived Res for layer M7 : 0.004 0.004 (RCEX-011)
Information: Library Derived Cap for layer M8 : 1.2e-06 1.2e-06 (RCEX-011)
Information: Library Derived Res for layer M8 : 0.004 0.004 (RCEX-011)
Information: Library Derived Cap for layer M9 : 3.9e-06 3.9e-06 (RCEX-011)
Information: Library Derived Res for layer M9 : 5.5e-05 5.5e-05 (RCEX-011)
Information: Library Derived Cap for layer AP : 1.4e-05 1.4e-05 (RCEX-011)
Information: Library Derived Res for layer AP : 1e-05 1e-05 (RCEX-011)
Information: Library Derived Horizontal Cap : 8.7e-06 8.7e-06 (RCEX-011)
Information: Library Derived Horizontal Res : 0.0027 0.0027 (RCEX-011)
Information: Library Derived Vertical Cap : 3.3e-06 3.3e-06 (RCEX-011)
Information: Library Derived Vertical Res : 0.004 0.004 (RCEX-011)
Information: Using derived R and C coefficients. (RCEX-008)
Information: Using region-based R and C coefficients. (RCEX-013)
Information: Library Derived Via Res : 0.0054 0.0054 (RCEX-011)
Loaded alib file './alib-52/tcbn45gsbwpwc.db.alib' (placeholder)
Loaded alib file './alib-52/tcbn45gsbwphvtwc.db.alib'
Loaded alib file './alib-52/tcbn45gsbwplvtwc.db.alib' (placeholder)
  Building model 'DW01_NAND2'
Information: Ungrouping hierarchy inst_ISA before Pass 1 (OPT-776)
Information: Ungrouping hierarchy inst_ISA/inst_SPEC_stage before Pass 1 (OPT-776)
Information: Ungrouping hierarchy inst_ISA/inst_ADD_stage before Pass 1 (OPT-776)
Information: Ungrouping hierarchy inst_ISA/inst_COMP_stage before Pass 1 (OPT-776)
Information: Ungrouping hierarchy inst_ISA/inst_SPEC_stage/inst_SPEC_6 before Pass 1 (OPT-776)
Information: Ungrouping hierarchy inst_ISA/inst_SPEC_stage/inst_SPEC_5 before Pass 1 (OPT-776)
Information: Ungrouping hierarchy inst_ISA/inst_SPEC_stage/inst_SPEC_4 before Pass 1 (OPT-776)
Information: Ungrouping hierarchy inst_ISA/inst_SPEC_stage/inst_SPEC_3 before Pass 1 (OPT-776)
Information: Ungrouping hierarchy inst_ISA/inst_SPEC_stage/inst_SPEC_2 before Pass 1 (OPT-776)
Information: Ungrouping hierarchy inst_ISA/inst_SPEC_stage/inst_SPEC_1 before Pass 1 (OPT-776)
Information: Ungrouping hierarchy inst_ISA/inst_ADD_stage/inst_ADD_7 before Pass 1 (OPT-776)
Information: Ungrouping hierarchy inst_ISA/inst_ADD_stage/inst_ADD_6 before Pass 1 (OPT-776)
Information: Ungrouping hierarchy inst_ISA/inst_ADD_stage/inst_ADD_5 before Pass 1 (OPT-776)
Information: Ungrouping hierarchy inst_ISA/inst_ADD_stage/inst_ADD_4 before Pass 1 (OPT-776)
Information: Ungrouping hierarchy inst_ISA/inst_ADD_stage/inst_ADD_3 before Pass 1 (OPT-776)
Information: Ungrouping hierarchy inst_ISA/inst_ADD_stage/inst_ADD_2 before Pass 1 (OPT-776)
Information: Ungrouping hierarchy inst_ISA/inst_ADD_stage/inst_ADD_1 before Pass 1 (OPT-776)
Information: Ungrouping hierarchy inst_ISA/inst_ADD_stage/inst_ADD_0 before Pass 1 (OPT-776)
Information: Ungrouping hierarchy inst_ISA/inst_COMP_stage/inst_COMP_S_5 before Pass 1 (OPT-776)
Information: Ungrouping hierarchy inst_ISA/inst_COMP_stage/inst_COMP_S_4 before Pass 1 (OPT-776)
Information: Ungrouping hierarchy inst_ISA/inst_COMP_stage/inst_COMP_S_3 before Pass 1 (OPT-776)
Information: Ungrouping hierarchy inst_ISA/inst_COMP_stage/inst_COMP_S_2 before Pass 1 (OPT-776)
Information: Ungrouping hierarchy inst_ISA/inst_COMP_stage/inst_COMP_S_1 before Pass 1 (OPT-776)
Information: Ungrouping 23 of 24 hierarchies before Pass 1 (OPT-775)
Information: State dependent leakage is now switched from on to off.

  Beginning Pass 1 Mapping
  ------------------------
  Processing 'ADDER32CLK'
Information: Added key list 'DesignWare' to design 'ADDER32CLK'. (DDB-72)
 Implement Synthetic for 'ADDER32CLK'.

  Updating timing information
Information: Updating design information... (UID-85)
Information: The library cell 'TIELBWP' in the library 'tcbn45gsbwpwc' is not characterized for internal power. (PWR-536)
Information: The library cell 'TIEHBWP' in the library 'tcbn45gsbwpwc' is not characterized for internal power. (PWR-536)
Information: The library cell 'TIELBWPHVT' in the library 'tcbn45gsbwphvtwc' is not characterized for internal power. (PWR-536)
Information: The library cell 'TIEHBWPHVT' in the library 'tcbn45gsbwphvtwc' is not characterized for internal power. (PWR-536)
Information: The library cell 'TIELBWPLVT' in the library 'tcbn45gsbwplvtwc' is not characterized for internal power. (PWR-536)
Information: The library cell 'TIEHBWPLVT' in the library 'tcbn45gsbwplvtwc' is not characterized for internal power. (PWR-536)
Information: The target library(s) contains cell(s), other than black boxes, that are not characterized for internal power. (PWR-24)

  Beginning Mapping Optimizations  (Ultra High effort)
  -------------------------------
  Mapping Optimization (Phase 1)

  Beginning Global Optimizations
  ------------------------------
  Global Optimization (Phase 1)
  Global Optimization (Phase 2)
  Global Optimization (Phase 3)
  Global Optimization (Phase 4)
  Global Optimization (Phase 5)
  Global Optimization (Phase 6)
  Global Optimization (Phase 7)
  Global Optimization (Phase 8)
  Global Optimization (Phase 9)
  Global Optimization (Phase 10)
  Global Optimization (Phase 11)
  Global Optimization (Phase 12)
  Global Optimization (Phase 13)
  Global Optimization (Phase 14)
  Global Optimization (Phase 15)
  Global Optimization (Phase 16)
  Global Optimization (Phase 17)
  Global Optimization (Phase 18)
  Global Optimization (Phase 19)
  Global Optimization (Phase 20)
  Global Optimization (Phase 21)

  Beginning Delay Optimization
  ----------------------------

                                  TOTAL                                                
   ELAPSED            WORST NEG   SETUP    DESIGN                              LEAKAGE 
    TIME      AREA      SLACK     COST    RULE COST         ENDPOINT            POWER  
  --------- --------- --------- --------- --------- ------------------------- ---------
    0:01:15     574.4      0.07       0.2       0.0                           2470.0735
    0:01:15     579.8      0.00       0.0       0.0                           2533.8074
    0:01:15     579.8      0.00       0.0       0.0                           2533.8074
    0:01:15     579.8      0.00       0.0       0.0                           2533.8074
    0:01:15     579.8      0.00       0.0       0.0                           2533.8074
    0:01:15     579.8      0.00       0.0       0.0                           2533.8074
    0:01:15     579.8      0.00       0.0       0.0                           2533.8074
    0:01:16     579.8      0.00       0.0       0.0                           2533.8074
Loading db file '/home/TSMC/45GS_GP_FRONT_NVT/digital/Front_End/timing_power_noise/NLDM/tcbn45gsbwp_120a/tcbn45gsbwpwc.db'
Loading db file '/home/TSMC/45GS_GP_FRONT_HVT/digital/Front_End/timing_power_noise/NLDM/tcbn45gsbwphvt_120a/tcbn45gsbwphvtwc.db'
Loading db file '/home/TSMC/45GS_GP_FRONT_LVT/digital/Front_End/timing_power_noise/NLDM/tcbn45gsbwplvt_120a/tcbn45gsbwplvtwc.db'
  Loading design 'ADDER32CLK'
Information: The library cell 'TIELBWP' in the library 'tcbn45gsbwpwc' is not characterized for internal power. (PWR-536)
Information: The library cell 'TIEHBWP' in the library 'tcbn45gsbwpwc' is not characterized for internal power. (PWR-536)
Information: The library cell 'TIELBWPHVT' in the library 'tcbn45gsbwphvtwc' is not characterized for internal power. (PWR-536)
Information: The library cell 'TIEHBWPHVT' in the library 'tcbn45gsbwphvtwc' is not characterized for internal power. (PWR-536)
Information: The library cell 'TIELBWPLVT' in the library 'tcbn45gsbwplvtwc' is not characterized for internal power. (PWR-536)
Information: The library cell 'TIEHBWPLVT' in the library 'tcbn45gsbwplvtwc' is not characterized for internal power. (PWR-536)
Information: The target library(s) contains cell(s), other than black boxes, that are not characterized for internal power. (PWR-24)
Information: The distance unit in Capacitance and Resistance is 1 micron. (RCEX-007)
Information: The RC model used is library 1D. (RCEX-015)
Information: Library Derived Cap for layer M1 : 2.6e-05 2.6e-05 (RCEX-011)
Information: Library Derived Res for layer M1 : 0.0044 0.0044 (RCEX-011)
Information: Library Derived Cap for layer M2 : 7.5e-06 7.5e-06 (RCEX-011)
Information: Library Derived Res for layer M2 : 0.004 0.004 (RCEX-011)
Information: Library Derived Cap for layer M3 : 4e-06 4e-06 (RCEX-011)
Information: Library Derived Res for layer M3 : 0.004 0.004 (RCEX-011)
Information: Library Derived Cap for layer M4 : 2.8e-06 2.8e-06 (RCEX-011)
Information: Library Derived Res for layer M4 : 0.004 0.004 (RCEX-011)
Information: Library Derived Cap for layer M5 : 2.1e-06 2.1e-06 (RCEX-011)
Information: Library Derived Res for layer M5 : 0.004 0.004 (RCEX-011)
Information: Library Derived Cap for layer M6 : 1.7e-06 1.7e-06 (RCEX-011)
Information: Library Derived Res for layer M6 : 0.004 0.004 (RCEX-011)
Information: Library Derived Cap for layer M7 : 1.4e-06 1.4e-06 (RCEX-011)
Information: Library Derived Res for layer M7 : 0.004 0.004 (RCEX-011)
Information: Library Derived Cap for layer M8 : 1.2e-06 1.2e-06 (RCEX-011)
Information: Library Derived Res for layer M8 : 0.004 0.004 (RCEX-011)
Information: Library Derived Cap for layer M9 : 3.9e-06 3.9e-06 (RCEX-011)
Information: Library Derived Res for layer M9 : 5.5e-05 5.5e-05 (RCEX-011)
Information: Library Derived Cap for layer AP : 1.4e-05 1.4e-05 (RCEX-011)
Information: Library Derived Res for layer AP : 1e-05 1e-05 (RCEX-011)
Information: Library Derived Horizontal Cap : 8.7e-06 8.7e-06 (RCEX-011)
Information: Library Derived Horizontal Res : 0.0027 0.0027 (RCEX-011)
Information: Library Derived Vertical Cap : 3.3e-06 3.3e-06 (RCEX-011)
Information: Library Derived Vertical Res : 0.004 0.004 (RCEX-011)
Information: Using derived R and C coefficients. (RCEX-008)
Information: Using region-based R and C coefficients. (RCEX-013)
Information: Library Derived Via Res : 0.0054 0.0054 (RCEX-011)
Warning: Layer 'M1' is missing the optional 'edge capacitance' attribute. (PSYN-101)
Warning: Layer 'M2' is missing the optional 'edge capacitance' attribute. (PSYN-101)
Warning: Layer 'M3' is missing the optional 'edge capacitance' attribute. (PSYN-101)
Warning: Layer 'M4' is missing the optional 'edge capacitance' attribute. (PSYN-101)
Warning: Layer 'M5' is missing the optional 'edge capacitance' attribute. (PSYN-101)
Warning: Layer 'M6' is missing the optional 'edge capacitance' attribute. (PSYN-101)
Warning: Layer 'M7' is missing the optional 'edge capacitance' attribute. (PSYN-101)
Warning: Layer 'M8' is missing the optional 'edge capacitance' attribute. (PSYN-101)
Warning: Layer 'M9' is missing the optional 'edge capacitance' attribute. (PSYN-101)
Warning: Layer 'AP' is missing the optional 'edge capacitance' attribute. (PSYN-101)

...33%...67%...100% done.


 Collecting Buffer Trees ... Found 0

 Processing Buffer Trees ... 

    [0] 100% Done ...


Information: Automatic high-fanout synthesis deletes 0 cells. (HFS-802)
Information: Automatic high-fanout synthesis adds 0 new cells. (PSYN-864)



  Beginning Timing Optimizations
  ------------------------------

                                  TOTAL                                                
   ELAPSED            WORST NEG   SETUP    DESIGN                              LEAKAGE 
    TIME      AREA      SLACK     COST    RULE COST         ENDPOINT            POWER  
  --------- --------- --------- --------- --------- ------------------------- ---------
    0:01:38     579.8      0.06       0.1       0.0                           2533.8074
  Global Optimization (Phase 22)
  Global Optimization (Phase 23)
  Global Optimization (Phase 24)
  Global Optimization (Phase 25)
    0:01:39     579.8      0.06       0.1       0.0                           2533.8074
    0:01:39     577.7      0.06       0.3       0.0                           2315.3755
    0:01:39     577.7      0.06       0.3       0.0                           2315.3755
    0:01:39     585.3      0.00       0.0       0.0                           2397.9807
    0:01:39     585.3      0.00       0.0       0.0                           2397.9807
    0:01:39     585.3      0.00       0.0       0.0                           2397.9807

  Beginning Delay Optimization HSVT Pass
  --------------------------------------
    0:01:53     585.3      0.00       0.0       0.0                           2397.9807
    0:01:53     585.3      0.00       0.0       0.0                           2397.9807
    0:01:53     585.3      0.00       0.0       0.0                           2397.9807
    0:01:53     585.3      0.00       0.0       0.0                           2397.9807
    0:02:00     585.3      0.00       0.0       0.0                           2397.9807
    0:02:00     585.3      0.00       0.0       0.0                           2397.9807
    0:02:00     585.3      0.00       0.0       0.0                           2397.9807
    0:02:00     585.3      0.00       0.0       0.0                           2397.9807

  Beginning Delay Optimization
  ----------------------------
    0:02:09     585.3      0.00       0.0       0.0                           2397.9807
    0:02:09     585.3      0.00       0.0       0.0                           2397.9807
    0:02:09     585.3      0.00       0.0       0.0                           2397.9807
    0:02:09     585.3      0.00       0.0       0.0                           2397.9807
    0:02:09     585.3      0.00       0.0       0.0                           2397.9807
    0:02:09     585.3      0.00       0.0       0.0                           2397.9807
    0:02:09     585.3      0.00       0.0       0.0                           2397.9807
    0:02:09     585.3      0.00       0.0       0.0                           2397.9807
    0:02:09     585.3      0.00       0.0       0.0                           2397.9807
    0:02:09     585.3      0.00       0.0       0.0                           2397.9807
    0:02:10     585.3      0.00       0.0       0.0                           2397.9807
    0:02:10     585.3      0.00       0.0       0.0                           2397.9807
    0:02:10     585.3      0.00       0.0       0.0                           2397.9807
    0:02:10     580.5      0.00       0.0       0.0                           2306.7598


  Beginning High Effort Optimization Phase
  ----------------------------------------


  Beginning Timing Optimization
  -----------------------------

                                  TOTAL                                                
   ELAPSED            WORST NEG   SETUP    DESIGN                              LEAKAGE 
    TIME      AREA      SLACK     COST    RULE COST         ENDPOINT            POWER  
  --------- --------- --------- --------- --------- ------------------------- ---------
    0:02:10     580.5      0.00       0.0       0.0                           2306.7598

  Beginning Delay Optimization HSVT Pass
  --------------------------------------
    0:02:15     580.5      0.00       0.0       0.0                           2306.7598
    0:02:15     580.5      0.00       0.0       0.0                           2306.7598
    0:02:22     580.5      0.00       0.0       0.0                           2306.7598
    0:02:22     580.5      0.00       0.0       0.0                           2306.7598

  Beginning Delay Optimization
  ----------------------------
    0:02:31     580.5      0.00       0.0       0.0                           2306.7598
    0:02:31     580.5      0.00       0.0       0.0                           2306.7598
    0:02:31     580.5      0.00       0.0       0.0                           2306.7598
    0:02:31     580.5      0.00       0.0       0.0                           2306.7598


  High Effort Optimization Phase Complete
  ---------------------------------------

    0:02:31     580.5      0.00       0.0       0.0                           2306.7598
    0:02:33     580.5      0.00       0.0       0.0                           2306.7598
Information: State dependent leakage is now switched from off to on.
Information: Propagating switching activity (low effort zero delay simulation). (PWR-6)


Note: Symbol # after min delay cost means estimated hold TNS across all active scenarios 


  Optimization Complete
  ---------------------
Loading db file '/home/TSMC/45GS_GP_FRONT_NVT/digital/Front_End/timing_power_noise/NLDM/tcbn45gsbwp_120a/tcbn45gsbwpwc.db'
Loading db file '/home/TSMC/45GS_GP_FRONT_HVT/digital/Front_End/timing_power_noise/NLDM/tcbn45gsbwphvt_120a/tcbn45gsbwphvtwc.db'
Loading db file '/home/TSMC/45GS_GP_FRONT_LVT/digital/Front_End/timing_power_noise/NLDM/tcbn45gsbwplvt_120a/tcbn45gsbwplvtwc.db'
1
############################## REPORT ########################################
write -format verilog -hierarchy -output ../PS/$dname.ps.v
Writing verilog file '/home/jiaoxun/ApproxCircuit/PS/ADDER32CLK.ps.v'.
1
report_timing > ../REP/PS_t_$dname.rep
report_area > ../REP/PS_a_$dname.rep
report_power > ../REP/PS_p_$dname.rep
write_sdf ../SDF/$dname.ps.sdf
Information: Annotated 'cell' delays are assumed to include load delay. (UID-282)
Information: Writing timing information to file '/home/jiaoxun/ApproxCircuit/SDF/ADDER32CLK.ps.sdf'. (WT-3)
1
report_timing
 
****************************************
Report : timing
        -path full
        -delay max
        -max_paths 1
Design : ADDER32CLK
Version: J-2014.09-SP5-3
Date   : Wed Oct 12 16:22:36 2016
****************************************

 * Some/all delay information is back-annotated.

Operating Conditions: WCCOM   Library: tcbn45gsbwpwc
Wire Load Model Mode: Inactive.

  Startpoint: b_reg[8] (rising edge-triggered flip-flop clocked by clk)
  Endpoint: out_s_reg[13]
            (rising edge-triggered flip-flop clocked by clk)
  Path Group: clk
  Path Type: max

  Point                                    Incr       Path
  -----------------------------------------------------------
  clock clk (rise edge)                    0.00       0.00
  clock network delay (ideal)              0.00       0.00
  b_reg[8]/CP (DFQD1BWPHVT)                0.00       0.00 r
  b_reg[8]/Q (DFQD1BWPHVT)                 0.18       0.18 f
  U84/ZN (NR2XD0BWPHVT)                    0.05 *     0.23 r
  U85/ZN (INVD0BWPHVT)                     0.04 *     0.27 f
  U86/Z (OA31D4BWPHVT)                     0.07 *     0.34 f
  U93/ZN (AOI21D1BWPHVT)                   0.05 *     0.39 r
  U106/ZN (OAI21D1BWPHVT)                  0.05 *     0.44 f
  U201/CO (FA1D2BWPHVT)                    0.10 *     0.54 f
  U117/ZN (NR3D0BWPHVT)                    0.09 *     0.63 r
  U118/ZN (INR2XD0BWPHVT)                  0.10 *     0.73 r
  U119/ZN (NR2D2BWPHVT)                    0.04 *     0.77 f
  U199/ZN (INVD0BWPHVT)                    0.03 *     0.80 r
  U200/ZN (ND2D0BWPHVT)                    0.07 *     0.87 f
  U208/Z (AO21D0BWPHVT)                    0.11 *     0.98 f
  out_s_reg[13]/D (DFQD1BWPHVT)            0.00 *     0.98 f
  data arrival time                                   0.98

  clock clk (rise edge)                    1.00       1.00
  clock network delay (ideal)              0.00       1.00
  out_s_reg[13]/CP (DFQD1BWPHVT)           0.00       1.00 r
  library setup time                      -0.02       0.98
  data required time                                  0.98
  -----------------------------------------------------------
  data required time                                  0.98
  data arrival time                                  -0.98
  -----------------------------------------------------------
  slack (MET)                                         0.00


1
#exit
dc_shell> exit

Thank you...

